…
## What is the number and percentage of missing values grouped by each observation?

``` r
miss_case_summary(IrrigationScheduling)
```

    ## # A tibble: 4,688 × 3
    ##     case n_miss pct_miss
    ##    <int>  <int>    <dbl>
    ##  1   414      1       10
    ##  2  4217      1       10
    ##  3  4231      1       10
    ##  4  4232      1       10
    ##  5  4631      1       10
    ##  6  4634      1       10
    ##  7     1      0        0
    ##  8     2      0        0
    ##  9     3      0        0
    ## 10     4      0        0
    ## # ℹ 4,678 more rows
…
\##What is the number and percentage of missing values grouped by each
observation?

``` r
miss_case_summary(irrigation_scheduling_imputed)
```

    ## # A tibble: 4,688 × 3
    ##     case n_miss pct_miss
    ##    <int>  <int>    <dbl>
    ##  1     1      0        0
    ##  2     2      0        0
    ##  3     3      0        0
    ##  4     4      0        0
    ##  5     5      0        0
    ##  6     6      0        0
    ##  7     7      0        0
    ##  8     8      0        0
    ##  9     9      0        0
    ## 10    10      0        0
    ## # ℹ 4,678 more rows
…
